digraph "DataStructure" {
  compound=true
  node [ fontsize="10", fontname="Helvetica"];
  edge [ labelfontsize="10", labelfontname="Helvetica"];
  dir_61f8caed08096df072032ac640f6feca [shape=box, label="DataStructure", style="filled", fillcolor="#eeeeff", pencolor="black", URL="dir_61f8caed08096df072032ac640f6feca.html"];
  dir_01053e417d9c83d53da67da4cd250683 [shape=box label="cuTEST" URL="dir_01053e417d9c83d53da67da4cd250683.html"];
  dir_d403198d2aa38de87971f2789d60a3dd [shape=box label="Exceptions" URL="dir_d403198d2aa38de87971f2789d60a3dd.html"];
  dir_b05a5fa85f84bfc9013183c9d87f9a36 [shape=box label="Utilities" URL="dir_b05a5fa85f84bfc9013183c9d87f9a36.html"];
  dir_01053e417d9c83d53da67da4cd250683->dir_b05a5fa85f84bfc9013183c9d87f9a36 [headlabel="3", labeldistance=1.5 headhref="dir_000000_000003.html"];
  dir_61f8caed08096df072032ac640f6feca->dir_01053e417d9c83d53da67da4cd250683 [headlabel="1", labeldistance=1.5 headhref="dir_000001_000000.html"];
  dir_61f8caed08096df072032ac640f6feca->dir_d403198d2aa38de87971f2789d60a3dd [headlabel="2", labeldistance=1.5 headhref="dir_000001_000002.html"];
  dir_61f8caed08096df072032ac640f6feca->dir_b05a5fa85f84bfc9013183c9d87f9a36 [headlabel="4", labeldistance=1.5 headhref="dir_000001_000003.html"];
}
